This is BibTeX, Version 0.99d (TeX Live 2019)
Capacity: max_strings=100000, hash_size=100000, hash_prime=85009
The top-level auxiliary file: main.aux
The style file: plain.bst
Database file #1: references.bib
Warning--to sort, need author or key in WikiTransaction
Warning--empty journal in StrongHash
Warning--empty year in StrongHash
You've used 9 entries,
            2118 wiz_defined-function locations,
            553 strings with 5224 characters,
and the built_in function-call counts, 2415 in all, are:
= -- 233
> -- 89
< -- 1
+ -- 38
- -- 28
* -- 141
:= -- 403
add.period$ -- 24
call.type$ -- 9
change.case$ -- 41
chr.to.int$ -- 0
cite$ -- 12
duplicate$ -- 100
empty$ -- 212
format.name$ -- 28
if$ -- 505
int.to.chr$ -- 0
int.to.str$ -- 9
missing$ -- 7
newline$ -- 45
num.names$ -- 16
pop$ -- 52
preamble$ -- 1
purify$ -- 32
quote$ -- 0
skip$ -- 78
stack$ -- 0
substring$ -- 131
swap$ -- 18
text.length$ -- 1
text.prefix$ -- 0
top$ -- 0
type$ -- 36
warning$ -- 3
while$ -- 24
width$ -- 10
write$ -- 88
(There were 3 warnings)
