\begin{thebibliography}{1}

\bibitem{WikiTransaction}
{Bitcoin Wiki}.
\newblock \url{https://en.bitcoin.it/wiki/Transaction}.

\bibitem{BlockchainInBtcEx}
Saifedean Ammous.
\newblock Blockchain technology: What is it good for?
\newblock {\em Available at SSRN 2832751}, 2016.

\bibitem{BlockchainStructure}
Arshdeep Bahga and Vijay~K Madisetti.
\newblock Blockchain platform for industrial internet of things.
\newblock {\em Journal of Software Engineering and Applications}, 9(10):533,
  2016.

\bibitem{ExchangeHacks}
Usman~W Chohan.
\newblock The problems of cryptocurrency thefts and exchange shutdowns.
\newblock {\em Available at SSRN 3131702}, 2018.

\bibitem{1MBblockSize}
Eleftherios~Kokoris Kogias, Philipp Jovanovic, Nicolas Gailly, Ismail Khoffi,
  Linus Gasser, and Bryan Ford.
\newblock Enhancing bitcoin security and performance with strong consistency
  via collective signing.
\newblock In {\em 25th Security Symposium Security 16)}, pages 279--296, 2016.

\bibitem{HashChain}
Leslie Lamport.
\newblock Password authentication with insecure communication.
\newblock {\em Communications of the ACM}, 24(11):770--772, 1981.

\bibitem{Whitepaper}
Satoshi Nakamoto.
\newblock Bitcoin: A peer-to-peer electronic cash system,”
  http://bitcoin.org/bitcoin.pdf, 2008.

\bibitem{StrongHash}
Keyur Parmar.
\newblock Cryptographic primitives in blockchain.

\bibitem{WhatIsBitcoin}
Bj{\"o}rn Segendorf.
\newblock What is bitcoin.
\newblock {\em Sveriges riksbank economic review}, 2:71--87, 2014.

\end{thebibliography}
