\relax 
\citation{BlockchainStructure}
\citation{StrongHash}
\@writefile{toc}{\contentsline {section}{\numberline {1}Abstract}{1}\protected@file@percent }
\@writefile{toc}{\contentsline {paragraph}{}{1}\protected@file@percent }
\@writefile{toc}{\contentsline {section}{\numberline {2}Introduction}{1}\protected@file@percent }
\@writefile{toc}{\contentsline {subsection}{\numberline {2.1}What is Blockchain and Cryptocurrency?}{1}\protected@file@percent }
\@writefile{toc}{\contentsline {subsubsection}{\numberline {2.1.1}Blockchain as a database}{1}\protected@file@percent }
\@writefile{toc}{\contentsline {paragraph}{}{1}\protected@file@percent }
\@writefile{lof}{\contentsline {figure}{\numberline {1}{\ignorespaces Example of a blockchain structure}}{1}\protected@file@percent }
\newlabel{fig:blockchain_structure}{{1}{1}}
\@writefile{toc}{\contentsline {subsubsection}{\numberline {2.1.2}The beginnings}{1}\protected@file@percent }
\@writefile{toc}{\contentsline {paragraph}{}{1}\protected@file@percent }
\citation{HashChain}
\citation{Whitepaper,BlockchainInBtcEx}
\citation{BlockchainInBtcEx}
\citation{WhatIsBitcoin}
\citation{Whitepaper}
\citation{1MBblockSize}
\citation{WikiTransaction}
\@writefile{toc}{\contentsline {subsubsection}{\numberline {2.1.3}Blockchain as a decentralised network}{2}\protected@file@percent }
\@writefile{toc}{\contentsline {paragraph}{}{2}\protected@file@percent }
\@writefile{toc}{\contentsline {subsubsection}{\numberline {2.1.4}Cryptocurrency in example of Bitcoin}{2}\protected@file@percent }
\@writefile{toc}{\contentsline {paragraph}{}{2}\protected@file@percent }
\@writefile{toc}{\contentsline {paragraph}{}{2}\protected@file@percent }
\@writefile{toc}{\contentsline {paragraph}{}{2}\protected@file@percent }
\@writefile{toc}{\contentsline {subsection}{\numberline {2.2}What is a blockchain transaction? Public and private key}{2}\protected@file@percent }
\@writefile{toc}{\contentsline {subsubsection}{\numberline {2.2.1}Blockchain transaction}{2}\protected@file@percent }
\@writefile{toc}{\contentsline {paragraph}{}{2}\protected@file@percent }
\citation{ExchangeHacks}
\@writefile{toc}{\contentsline {subsubsection}{\numberline {2.2.2}Public and private key}{3}\protected@file@percent }
\@writefile{toc}{\contentsline {paragraph}{}{3}\protected@file@percent }
\@writefile{toc}{\contentsline {paragraph}{}{3}\protected@file@percent }
\@writefile{toc}{\contentsline {subsection}{\numberline {2.3}Cryptocurrency exchanges and blockchain transaction processing }{3}\protected@file@percent }
\@writefile{toc}{\contentsline {paragraph}{}{3}\protected@file@percent }
\@writefile{toc}{\contentsline {subsection}{\numberline {2.4}Why a safe system is required for a private key storage?}{3}\protected@file@percent }
\@writefile{toc}{\contentsline {paragraph}{}{3}\protected@file@percent }
\bibstyle{plain}
\bibdata{references}
\bibcite{WikiTransaction}{{1}{}{{}}{{}}}
\bibcite{BlockchainInBtcEx}{{2}{}{{}}{{}}}
\bibcite{BlockchainStructure}{{3}{}{{}}{{}}}
\bibcite{ExchangeHacks}{{4}{}{{}}{{}}}
\bibcite{1MBblockSize}{{5}{}{{}}{{}}}
\bibcite{HashChain}{{6}{}{{}}{{}}}
\bibcite{Whitepaper}{{7}{}{{}}{{}}}
\bibcite{StrongHash}{{8}{}{{}}{{}}}
\bibcite{WhatIsBitcoin}{{9}{}{{}}{{}}}
\providecommand\NAT@force@numbers{}\NAT@force@numbers
\@writefile{lof}{\contentsline {figure}{\numberline {2}{\ignorespaces System architecture diagram}}{4}\protected@file@percent }
\newlabel{fig:system_architecture_diagram}{{2}{4}}
